%YAML 1.1
%TAG !u! tag:unity3d.com,2011:
--- !u!21 &2100000
Material:
  serializedVersion: 6
  m_ObjectHideFlags: 0
  m_CorrespondingSourceObject: {fileID: 0}
  m_PrefabInstance: {fileID: 0}
  m_PrefabAsset: {fileID: 0}
  m_Name: mat1_clip
  m_Shader: {fileID: 4800000, guid: 860bed2eefd88c549ba1a32040c88815, type: 3}
  m_ShaderKeywords: _ALPHATEST_ON
  m_LightmapFlags: 4
  m_EnableInstancingVariants: 0
  m_DoubleSidedGI: 0
  m_CustomRenderQueue: -1
  stringTagMap: {}
  disabledShaderPasses: []
  m_SavedProperties:
    serializedVersion: 3
    m_TexEnvs:
    - _MainTex:
        m_Texture: {fileID: 2800000, guid: 6822d0ce4cc1d8c44b6cd903920bfe35, type: 3}
        m_Scale: {x: 1, y: 1}
        m_Offset: {x: 0, y: 0}
    m_Floats:
    - _AlphaTest: 1
    - _Cull: 0
    - _Cutoff: 0.1
    - _NearClip: 0.04
    m_Colors:
    - _Color: {r: 1, g: 1, b: 1, a: 1}
    - _Fingers: {r: 0.2, g: 0.5, b: 0.5, a: 0.5}
